Kapitel 2 Daten aufräumen | Umfragen auswerten
…
In diesem Fall ist das Item i02r bereits umkodiert - genau wie alle Items im Datensatz die mit dem Suffix r gekennzeichnet sind. In anderen Situationen kann es aber nötig sein, Items umzukodieren. Vergessen Sie dann nicht, das Ergebnis als (neuen) Datensatz zu speichern.

Übrigens macht es rec() noch einfacher und zwar mit dem Parameterwert “rev” (wie revert):

extra %>% 
  rec(i02r, rec = "rev")

Wenn Sie mehrere Items auswählen wollen,
benutzen Sie das tidyselect-Prinzip:
Also einfach die Spalten ohne Anführungszeichen per Komma (oder :) hintereinander aufführen:

extra %>% 
  rec(i02r, i06r, rec= "rev")
#> # A tibble: 826 × 36
#>    timestamp code    i01  i02r   i03   i04   i05  i06r   i07
#>    <chr>     <chr> <dbl> <dbl> <dbl> <dbl> <dbl> <dbl> <dbl>
#>  1 11.03.20… HSC       3     3     3     3     4     4     3
#>  2 11.03.20… ERB       2     2     1     2     3     2     2
#>  3 11.03.20… ADP       3     4     1     4     4     1     3
#>  4 11.03.20… KHB       3     3     2     4     3     3     3
#>  5 11.03.20… PTG       4     3     1     4     4     3     4
#>  6 11.03.20… ABL       3     2     1     4     2     3     4
#>  7 11.03.20… ber       4     4     1     3     3     3     2
#>  8 11.03.20… hph       3     3     2     3     2     2     3
#>  9 11.03.20… IHW       4     4     1     4     3     4     3
#> 10 11.03.20… LEI       4     4     2     4     3     3     3
#> # … with 816 more rows, and 27 more variables: i08 <dbl>,
#> #   i09 <dbl>, i10 <dbl>, n_facebook_friends <dbl>,
#> #   n_hangover <dbl>, age <dbl>, sex <chr>,
#> #   extra_single_item <dbl>, time_conversation <dbl>,
#> #   presentation <chr>, n_party <dbl>, clients <chr>,
#> #   extra_vignette <chr>, i21 <lgl>, extra_vignette2 <dbl>,
#> #   major <chr>, smoker <chr>, sleep_week <dbl>, …
…
