Kapitel 4 Fallstudie Popup-Stores | Umfragen auswerten
…
4.4.4 Ad 4

d4 <-
  d3 %>% 
  select(-c(v002, v006, v007))

4.4.5 Ad 5

.

d4 %>% 
  mutate(v001 = na_if(v001, ""),
         v001 = na_if(v001, "N/A"))
#> # A tibble: 90 × 80
#>     v001  v003      v005 v008  v009  v010  v011  v012  v013 
#>    <dbl> <dbl>     <dbl> <chr> <chr> <chr> <chr> <chr> <chr>
#>  1   794    25    1.03e9 2a02… <NA>  Ja    Ja    Nein  Nein 
#>  2   146    25    1.38e9 2a02… <NA>  Ja    Ja    Nein  Nein 
#>  3   459     4    3.55e8 2003… http… Nein  Ja    Nein  Ja   
#>  4   324    25    9.95e8 134.… http… Ja    Ja    Nein  Nein 
#>  5   257    25    6.89e8 2003… http… Nein  Nein  Nein  Ja   
#>  6   182    25    1.70e9 2003… http… Nein  Nein  Nein  Nein 
#>  7    95    25    1.70e9 93.1… http… Ja    Nein  Ja    Nein 
#>  8   355    25    1.60e9 2a02… http… Ja    Nein  Nein  Ja   
#>  9   570    25    8.10e8 2003… http… Nein  Nein  Nein  Nein 
#> 10   173    25    7.67e7 134.… http… Ja    Nein  Nein  Nein 
#> # … with 80 more rows, and 71 more variables: v014 <chr>,
#> #   v015 <chr>, v016 <chr>, v017 <chr>, v018 <chr>,
#> #   v019 <chr>, v020 <chr>, v021 <chr>, v022 <chr>,
#> #   v023 <dbl>, v033 <chr>, v034 <chr>, v035 <chr>,
#> #   v036 <chr>, v037 <chr>, v038 <chr>, v039 <chr>,
#> #   v040 <chr>, v041 <chr>, v042 <chr>, v043 <chr>,
#> #   v044 <chr>, v045 <chr>, v046 <chr>, v047 <chr>, …
…
